{
    "KPlugin": {
        "Name": "Present Windows NG",
        "ServiceTypes": [
            "KCModule"
        ]
    },
    "X-KDE-ParentComponents": [
        "kwin4_effect_presentwindowsng"
    ]
}