{
    "KPlugin": {
        "Authors": [
            {
                "Email": "user@example.com",
                "Name": "Foo Bar"
            }
        ],
        "Category": "Window Management",
        "Description": "Zoom out until all opened windows can be displayed side-by-side",
        "EnabledByDefault": false,
        "Icon": "preferences-system-windows-effect-presentwindowsng",
        "Id": "kwin4_effect_presentwindowsng",
        "License": "GPL",
        "Name": "Present Windows NG",
        "ServiceTypes": [
            "KWin/Effect"
        ]
    }
}